…
    ## [1] "tbl_df"     "tbl"        "data.frame"

Tibbles are opinionated in their printing, among other things. Some of
the print options are a little intrusive for me, so I [customize
them](https://www.tidyverse.org/articles/2018/01/tibble-1-4-2/) in my
`.Rprofile` file, e.g. `pillar.subtle = FALSE` to avoid graying-out
insignificant digits.

``` r
d
```

    ## # A tibble: 1,562 x 19
    ##    country      year `Life Ladder` `Log GDP per capita` `Social support`
    ##    <chr>       <dbl>         <dbl>                <dbl>            <dbl>
    ##  1 Afghanistan 2008.          3.72                 7.17            0.451
    ##  2 Afghanistan 2009.          4.40                 7.33            0.552
    ##  3 Afghanistan 2010.          4.76                 7.39            0.539
    ##  4 Afghanistan 2011.          3.83                 7.42            0.521
    ##  5 Afghanistan 2012.          3.78                 7.52            0.521
    ##  6 Afghanistan 2013.          3.57                 7.50            0.484
    ##  7 Afghanistan 2014.          3.13                 7.48            0.526
    ##  8 Afghanistan 2015.          3.98                 7.47            0.529
    ##  9 Afghanistan 2016.          4.22                 7.46            0.559
    ## 10 Afghanistan 2017.          2.66                 7.46            0.491
    ## # ... with 1,552 more rows, and 14 more variables: `Healthy life
    ## #   expectancy at birth` <dbl>, `Freedom to make life choices` <dbl>,
    ## #   Generosity <dbl>, `Perceptions of corruption` <dbl>, `Positive
    ## #   affect` <dbl>, `Negative affect` <dbl>, `Confidence in national
    ## #   government` <dbl>, `Democratic Quality` <dbl>, `Delivery
    ## #   Quality` <dbl>, `Standard deviation of ladder by country-year` <dbl>,
    ## #   `Standard deviation/Mean of ladder by country-year` <dbl>, `GINI index
    ## #   (World Bank estimate)` <dbl>, `GINI index (World Bank estimate),
    ## #   average 2000-15` <dbl>, `gini of household income reported in Gallup,
…
    ## Warning: Unknown or uninitialised column: 'count'.

    ## NULL

### Tibbles stay tibbles

Following is equivalent to `data.frame[, "country", drop = FALSE]`,
where without specifying `drop` we would “drop” a dimension and
(surprise\!) get a vector back.

``` r
d[, "country"]
```

    ## # A tibble: 1,562 x 1
    ##    country    
    ##    <chr>      
    ##  1 Afghanistan
    ##  2 Afghanistan
    ##  3 Afghanistan
    ##  4 Afghanistan
    ##  5 Afghanistan
    ##  6 Afghanistan
    ##  7 Afghanistan
    ##  8 Afghanistan
    ##  9 Afghanistan
    ## 10 Afghanistan
    ## # ... with 1,552 more rows
…
Our data is already tidy: each row is an observation (country-year) and
each variable is a column.

This is a trick to get the plot I want – let’s imagine that each
question asked is a variable, making the unit of observation a
country-year-question. Then we’d need one more variable: The answer to
the question, which I’m calling “value”.

``` r
d %>%
  gather(key = question, value = value, -country, -year) 
```

    ## # A tibble: 26,554 x 4
    ##    country      year question    value
    ##    <chr>       <dbl> <chr>       <dbl>
    ##  1 Afghanistan 2008. life_ladder  3.72
    ##  2 Afghanistan 2009. life_ladder  4.40
    ##  3 Afghanistan 2010. life_ladder  4.76
    ##  4 Afghanistan 2011. life_ladder  3.83
    ##  5 Afghanistan 2012. life_ladder  3.78
    ##  6 Afghanistan 2013. life_ladder  3.57
    ##  7 Afghanistan 2014. life_ladder  3.13
    ##  8 Afghanistan 2015. life_ladder  3.98
    ##  9 Afghanistan 2016. life_ladder  4.22
    ## 10 Afghanistan 2017. life_ladder  2.66
    ## # ... with 26,544 more rows
…
# `dplyr`

``` r
d %>%
  gather(key = question, value = value, -country, -year) %>%
  mutate(question = fct_inorder(question))
```

    ## # A tibble: 26,554 x 4
    ##    country      year question    value
    ##    <chr>       <dbl> <fct>       <dbl>
    ##  1 Afghanistan 2008. life_ladder  3.72
    ##  2 Afghanistan 2009. life_ladder  4.40
    ##  3 Afghanistan 2010. life_ladder  4.76
    ##  4 Afghanistan 2011. life_ladder  3.83
    ##  5 Afghanistan 2012. life_ladder  3.78
    ##  6 Afghanistan 2013. life_ladder  3.57
    ##  7 Afghanistan 2014. life_ladder  3.13
    ##  8 Afghanistan 2015. life_ladder  3.98
    ##  9 Afghanistan 2016. life_ladder  4.22
    ## 10 Afghanistan 2017. life_ladder  2.66
    ## # ... with 26,544 more rows

`group_by` provides a much friendlier version of `aggregate` or `tapply`
and maintains the data frame centric paradigm.

``` r
d %>%
  group_by(country) %>%
  summarize(mean_gdp = mean(log_gdp_per_capita),
            sd_gdp = sd(log_gdp_per_capita),
            rsd_gdp = sd_gdp / mean_gdp) %>%
  arrange(desc(rsd_gdp))
```

    ## # A tibble: 164 x 4
    ##    country      mean_gdp sd_gdp rsd_gdp
    ##    <chr>           <dbl>  <dbl>   <dbl>
    ##  1 China            9.25  0.281  0.0303
    ##  2 Laos             8.30  0.244  0.0294
    ##  3 Uzbekistan       8.46  0.209  0.0247
    ##  4 India            8.46  0.205  0.0243
    ##  5 Mozambique       6.85  0.158  0.0231
    ##  6 Bangladesh       7.88  0.176  0.0223
    ##  7 Sierra Leone     7.18  0.155  0.0215
    ##  8 Zimbabwe         7.42  0.160  0.0215
    ##  9 Rwanda           7.28  0.156  0.0214
    ## 10 Cambodia         7.93  0.169  0.0213
    ## # ... with 154 more rows
…
``` r
readxl::excel_sheets("WHR2018Chapter2OnlineData.xls")
```

    ## [1] "Table2.1"          "Figure2.2"         "Figure2.3"        
    ## [4] "Figure2.4"         "SupportingFactors"

``` r
reg <- readxl::read_excel("WHR2018Chapter2OnlineData.xls", sheet = "SupportingFactors")
reg <- reg %>% select(country, region = `Region indicator`)
reg
```

    ## # A tibble: 156 x 2
    ##    country     region                            
    ##    <chr>       <chr>                             
    ##  1 Afghanistan South Asia                        
    ##  2 Albania     Central and Eastern Europe        
    ##  3 Algeria     Middle East and North Africa      
    ##  4 Angola      Sub-Saharan Africa                
    ##  5 Argentina   Latin America and Caribbean       
    ##  6 Armenia     Commonwealth of Independent States
    ##  7 Australia   North America and ANZ             
    ##  8 Austria     Western Europe                    
    ##  9 Azerbaijan  Commonwealth of Independent States
    ## 10 Bahrain     Middle East and North Africa      
    ## # ... with 146 more rows
…
``` r
d <- left_join(d, reg) %>%
  select(country, region, everything())
```

    ## Joining, by = "country"

``` r
d
```

    ## # A tibble: 1,562 x 20
    ##    country    region     year life_ladder log_gdp_per_capi… social_support
    ##    <chr>      <chr>     <dbl>       <dbl>             <dbl>          <dbl>
    ##  1 Afghanist… South As… 2008.        3.72              7.17          0.451
    ##  2 Afghanist… South As… 2009.        4.40              7.33          0.552
    ##  3 Afghanist… South As… 2010.        4.76              7.39          0.539
    ##  4 Afghanist… South As… 2011.        3.83              7.42          0.521
    ##  5 Afghanist… South As… 2012.        3.78              7.52          0.521
    ##  6 Afghanist… South As… 2013.        3.57              7.50          0.484
    ##  7 Afghanist… South As… 2014.        3.13              7.48          0.526
    ##  8 Afghanist… South As… 2015.        3.98              7.47          0.529
    ##  9 Afghanist… South As… 2016.        4.22              7.46          0.559
    ## 10 Afghanist… South As… 2017.        2.66              7.46          0.491
    ## # ... with 1,552 more rows, and 14 more variables:
    ## #   healthy_life_expectancy_at_birth <dbl>,
    ## #   freedom_to_make_life_choices <dbl>, generosity <dbl>,
    ## #   perceptions_of_corruption <dbl>, positive_affect <dbl>,
    ## #   negative_affect <dbl>, confidence_in_national_government <dbl>,
    ## #   democratic_quality <dbl>, delivery_quality <dbl>,
    ## #   standard_deviation_of_ladder_by_country_year <dbl>,
    ## #   standard_deviation_mean_of_ladder_by_country_year <dbl>,
    ## #   gini_index_world_bank_estimate_ <dbl>,
…
